<svg xmlns="http://www.w3.org/2000/svg" width="24" height="17" viewBox="0 0 24 17">
  <path fill="currentColor" d="M0.818181873,0.27273 C0.366331247,0.272775178 4.52328316e-05,0.639061192 5.45454552e-08,1.09091182 L5.45454552e-08,15.8181873 C4.52328316e-05,16.2700379 0.366331247,16.6363239 0.818181873,16.6363691 L23.1818182,16.6363691 C23.6336688,16.6363239 23.9999548,16.2700379 24,15.8181873 L24,1.09091182 C23.9999548,0.639061192 23.6336688,0.272775178 23.1818182,0.27273 L0.818181873,0.27273 Z M3.13636364,1.90909364 L20.8636364,1.90909364 L12,9.04260545 L3.13636364,1.90909364 Z M1.63636364,2.79545727 L11.4886364,10.7215964 C11.7875558,10.9608842 12.2124442,10.9608842 12.5113636,10.7215964 L22.3636364,2.79545727 L22.3636364,15.0000055 L1.63636364,15.0000055 L1.63636364,2.79545727 Z"/>
</svg>
